<svg width="9" height="12" viewBox="0 0 9 12" fill="none" xmlns="http://www.w3.org/2000/svg" xmlns:xlink="http://www.w3.org/1999/xlink">
<rect width="9" height="12" fill="#E5E5E5"/>
<g id="320px" clip-path="url(#clip0_0_1)">
<rect width="373" height="1742" transform="translate(-180 -1584)" fill="white"/>
<rect id="page-bg" x="-180" y="-1584" width="373" height="1742" fill="black" fill-opacity="0.01"/>
<g id="Footer" clip-path="url(#clip1_0_1)">
<rect id="footer-bg" x="-180" y="-157" width="373" height="315" fill="black"/>
<g id="Social Icons" opacity="0.77" clip-path="url(#clip2_0_1)">
<g id="Twitter" clip-path="url(#clip3_0_1)">
<rect id="round" x="-11" y="-10" width="32" height="32" rx="16" fill="black" fill-opacity="0.01" stroke="#45B0E3" stroke-width="2"/>
<rect id="twitter-icon" width="9" height="12" fill="url(#pattern0)"/>
</g>
</g>
</g>
</g>
<defs>
<pattern id="pattern0" patternContentUnits="objectBoundingBox" width="1" height="1">
<use xlink:href="#image0_0_1" transform="scale(0.111111 0.0833333)"/>
</pattern>
<clipPath id="clip0_0_1">
<rect width="373" height="1742" fill="white" transform="translate(-180 -1584)"/>
</clipPath>
<clipPath id="clip1_0_1">
<rect width="373" height="315" fill="white" transform="translate(-180 -157)"/>
</clipPath>
<clipPath id="clip2_0_1">
<rect width="192" height="34" fill="white" transform="translate(-91 -11)"/>
</clipPath>
<clipPath id="clip3_0_1">
<rect width="34" height="34" fill="white" transform="translate(-12 -11)"/>
</clipPath>
<image id="image0_0_1" data-name="twitter-icon.png" width="9" height="12" xlink:href="data:image/png;base64,iVBORw0KGgoAAAANSUhEUgAAAAkAAAAMCAYAAACwXJejAAAAdklEQVQYlY2RUQ2AMAwFD4IApAwF8IMOsICj4QAH4IBaIBhAAikZyVK2hPtZutzat63ol3MHHCBAQ4IyCITV5aSYOiVVph6ALqovwFtpTDRq7bgktpMHDrtnpRnY/gSP0eCij7maG1lEg0/hRA6n0vsdnywPIDd20xTROZ0meQAAAABJRU5ErkJggg=="/>
</defs>
</svg>
